[
  {
    "id": 0,
    "name": "LIQUICOM",
    "date": "2020-02-12",
    "problem": "cancer",
    "cases": 1578,
    "country": "EAST TIMOR"
  },
  {
    "id": 1,
    "name": "OMNIGOG",
    "date": "2020-09-21",
    "problem": "bellyache",
    "cases": 2616,
    "country": "PAPUA NEW GUINEA"
  },
  {
    "id": 2,
    "name": "TEMORAK",
    "date": "2020-10-22",
    "problem": "cancer",
    "cases": 2715,
    "country": "VANUATU"
  },
  {
    "id": 3,
    "name": "CYTREX",
    "date": "2020-03-07",
    "problem": "pain",
    "cases": 565,
    "country": "ECUADOR"
  },
  {
    "id": 4,
    "name": "PERMADYNE",
    "date": "2020-08-23",
    "problem": "headache",
    "cases": 1739,
    "country": "NAMIBIA"
  },
  {
    "id": 5,
    "name": "ZIZZLE",
    "date": "2020-10-29",
    "problem": "pain",
    "cases": 1417,
    "country": "HONDURAS"
  },
  {
    "id": 6,
    "name": "IMPERIUM",
    "date": "2020-12-05",
    "problem": "pain",
    "cases": 1369,
    "country": "EGYPT"
  },
  {
    "id": 7,
    "name": "PEARLESEX",
    "date": "2020-01-29",
    "problem": "headache",
    "cases": 514,
    "country": "AFGHANISTAN"
  },
  {
    "id": 8,
    "name": "EVENTEX",
    "date": "2020-04-05",
    "problem": "headache",
    "cases": 4089,
    "country": "KOREA (SOUTH)"
  },
  {
    "id": 9,
    "name": "FLOTONIC",
    "date": "2020-03-21",
    "problem": "bellyache",
    "cases": 4522,
    "country": "GUAM"
  },
  {
    "id": 10,
    "name": "ZINCA",
    "date": "2020-05-24",
    "problem": "pain",
    "cases": 3365,
    "country": "PUERTO RICO"
  },
  {
    "id": 11,
    "name": "SURELOGIC",
    "date": "2020-03-12",
    "problem": "pain",
    "cases": 783,
    "country": "WESTERN SAHARA"
  },
  {
    "id": 12,
    "name": "PHUEL",
    "date": "2020-05-30",
    "problem": "bellyache",
    "cases": 4747,
    "country": "PHILIPPINES"
  },
  {
    "id": 13,
    "name": "ASIMILINE",
    "date": "2020-10-14",
    "problem": "headache",
    "cases": 2723,
    "country": "FRENCH SOUTHERN TERRITORIES"
  },
  {
    "id": 14,
    "name": "VURBO",
    "date": "2020-05-26",
    "problem": "headache",
    "cases": 3788,
    "country": "LAOS"
  },
  {
    "id": 15,
    "name": "IMMUNICS",
    "date": "2020-07-04",
    "problem": "pain",
    "cases": 696,
    "country": "BAHRAIN"
  },
  {
    "id": 16,
    "name": "ZOMBOID",
    "date": "2020-04-21",
    "problem": "headache",
    "cases": 4757,
    "country": "ANGUILLA"
  },
  {
    "id": 17,
    "name": "PLASMOSIS",
    "date": "2020-05-13",
    "problem": "pain",
    "cases": 2384,
    "country": "SAMOA"
  },
  {
    "id": 18,
    "name": "LIMAGE",
    "date": "2020-01-19",
    "problem": "pain",
    "cases": 3817,
    "country": "GUADELOUPE"
  },
  {
    "id": 19,
    "name": "INTRAWEAR",
    "date": "2020-07-16",
    "problem": "bellyache",
    "cases": 1000,
    "country": "PALAU"
  },
  {
    "id": 20,
    "name": "GOLOGY",
    "date": "2020-06-04",
    "problem": "bellyache",
    "cases": 1802,
    "country": "CHAD"
  },
  {
    "id": 21,
    "name": "DIGIFAD",
    "date": "2020-02-24",
    "problem": "bellyache",
    "cases": 3598,
    "country": "UNITED KINGDOM"
  }
]